-- Merging decision tree log ---
manifest
ADDED from /Users/hithesh/Downloads/WikitudeSDK_NativeAPI_Android_8-2-0_2018-11-13_13-25-33/Examples/NativeSDKExamples/plugins/src/main/AndroidManifest.xml:1:1-2:38
INJECTED from /Users/hithesh/Downloads/WikitudeSDK_NativeAPI_Android_8-2-0_2018-11-13_13-25-33/Examples/NativeSDKExamples/plugins/src/main/AndroidManifest.xml:1:1-2:38
INJECTED from /Users/hithesh/Downloads/WikitudeSDK_NativeAPI_Android_8-2-0_2018-11-13_13-25-33/Examples/NativeSDKExamples/plugins/src/main/AndroidManifest.xml:1:1-2:38
	package
		ADDED from /Users/hithesh/Downloads/WikitudeSDK_NativeAPI_Android_8-2-0_2018-11-13_13-25-33/Examples/NativeSDKExamples/plugins/src/main/AndroidManifest.xml:2:5-35
		INJECTED from /Users/hithesh/Downloads/WikitudeSDK_NativeAPI_Android_8-2-0_2018-11-13_13-25-33/Examples/NativeSDKExamples/plugins/src/main/AndroidManifest.xml
		INJECTED from /Users/hithesh/Downloads/WikitudeSDK_NativeAPI_Android_8-2-0_2018-11-13_13-25-33/Examples/NativeSDKExamples/plugins/src/main/AndroidManifest.xml
	xmlns:android
		ADDED from /Users/hithesh/Downloads/WikitudeSDK_NativeAPI_Android_8-2-0_2018-11-13_13-25-33/Examples/NativeSDKExamples/plugins/src/main/AndroidManifest.xml:1:11-69
uses-sdk
INJECTED from /Users/hithesh/Downloads/WikitudeSDK_NativeAPI_Android_8-2-0_2018-11-13_13-25-33/Examples/NativeSDKExamples/plugins/src/main/AndroidManifest.xml reason: use-sdk injection requested
INJECTED from /Users/hithesh/Downloads/WikitudeSDK_NativeAPI_Android_8-2-0_2018-11-13_13-25-33/Examples/NativeSDKExamples/plugins/src/main/AndroidManifest.xml
INJECTED from /Users/hithesh/Downloads/WikitudeSDK_NativeAPI_Android_8-2-0_2018-11-13_13-25-33/Examples/NativeSDKExamples/plugins/src/main/AndroidManifest.xml
INJECTED from /Users/hithesh/Downloads/WikitudeSDK_NativeAPI_Android_8-2-0_2018-11-13_13-25-33/Examples/NativeSDKExamples/plugins/src/main/AndroidManifest.xml
INJECTED from /Users/hithesh/Downloads/WikitudeSDK_NativeAPI_Android_8-2-0_2018-11-13_13-25-33/Examples/NativeSDKExamples/plugins/src/main/AndroidManifest.xml
	android:targetSdkVersion
		INJECTED from /Users/hithesh/Downloads/WikitudeSDK_NativeAPI_Android_8-2-0_2018-11-13_13-25-33/Examples/NativeSDKExamples/plugins/src/main/AndroidManifest.xml
		ADDED from /Users/hithesh/Downloads/WikitudeSDK_NativeAPI_Android_8-2-0_2018-11-13_13-25-33/Examples/NativeSDKExamples/plugins/src/main/AndroidManifest.xml
		INJECTED from /Users/hithesh/Downloads/WikitudeSDK_NativeAPI_Android_8-2-0_2018-11-13_13-25-33/Examples/NativeSDKExamples/plugins/src/main/AndroidManifest.xml
	android:minSdkVersion
		INJECTED from /Users/hithesh/Downloads/WikitudeSDK_NativeAPI_Android_8-2-0_2018-11-13_13-25-33/Examples/NativeSDKExamples/plugins/src/main/AndroidManifest.xml
		ADDED from /Users/hithesh/Downloads/WikitudeSDK_NativeAPI_Android_8-2-0_2018-11-13_13-25-33/Examples/NativeSDKExamples/plugins/src/main/AndroidManifest.xml
		INJECTED from /Users/hithesh/Downloads/WikitudeSDK_NativeAPI_Android_8-2-0_2018-11-13_13-25-33/Examples/NativeSDKExamples/plugins/src/main/AndroidManifest.xml
